Chapter 1 Machine Learning for Social Scientists | Machine Learning for Social Scientists
…
# Run the model
m1 <-
  ml_flow %>%
  plug_recipe(~ recipe(income ~ age, data = .)) %>%  # Add the formula
  plug_model(set_engine(linear_reg(), "lm")) %>% # Define the linear regression
  fit() # Fit model

# Predict on the training data
m1_res <-
  m1 %>%
  predict_training()

m1_res

## # A tibble: 375 x 3
##      age income .pred
##    <dbl>  <dbl> <dbl>
##  1 56.9   2574. 2650.
##  2 38.9   2091. 2298.
##  3 62.8   2328. 2767.
##  4 84.9   3548. 3200.
##  5 65.3   2440. 2815.
##  6 93.8   3866. 3374.
##  7  7.92  1511. 1692.
##  8 78.3   3134. 3070.
##  9 55.7   2777. 2628.
## 10 42.2   2918. 2362.
## # … with 365 more rows
…
