Chapter 3 Tree-based methods | Machine Learning for Social Scientists
…
c("Decision tree" = rmse_dtree$.estimate, "Bagged decision tree" = rmse_btree$.estimate)

##        Decision tree Bagged decision tree 
##             33.85131             11.33018

The bagged decision tree improves the error rate from \(33\) math test points to \(11\). That is a \(66\%\) reduction in the error rate! That is an impressive improvement for such a simple extension of decision trees.

As all other models, bagging also has limitations. First, although bagged decision trees offer improved predictions over decision trees, they do this at the expense of interpretability. Unfortunately, there is no equivalent of an ‘average’ tree that we can visualize. Remember, we have \(100\) predictions from \(100\) different trees. It is not possible nor advisable to visualize \(100\) trees. Instead, we can look at the average variable importance. Bagging offers the ‘contribution’ of each variable using loss functions. For continuous variables, it uses the \(RSS\) (which we have described and used throughout this chapter) and for binary variables it uses the Gini index. We can look at the importance of the variables to get a notion of which variables are the important ones for good prediction:

res_btree %>%
  pull_tflow_fit() %>%
  .[['fit']] %>%
  var_imp()

## # A tibble: 501 x 4
##    term           value std.error  used
##    <chr>          <dbl>     <dbl> <int>
##  1 scie_score 23363949.    75426.    50
##  2 read_score 17033482.    69939.    50
##  3 ST166Q03HA  5913918.    66479.    50
##  4 METASPAM    5671665.    68871.    50
##  5 IC152Q08HA  3850699.   304274.    49
##  6 PISADIFF    3046729.   362250.    50
##  7 IC010Q06NA  2691482.   355147.    50
##  8 ST013Q01TA   433681.   142604.    50
##  9 ESCS         329367.    16981.    50
## 10 HOMEPOS      258437.    11440.    50
## # … with 491 more rows
…
