Machine Learning for Social Scientists
…
# Disadvantages of bagging

* Less interpretability

* Alternative, VIP plots:

```r
res_btree %>%
  pull_tflow_fit() %>%
  .[['fit']] %>%
  var_imp()
```

```
# A tibble: 501 x 4
   term           value std.error  used
   <chr>          <dbl>     <dbl> <int>
 1 scie_score 23363949.    75426.    50
 2 read_score 17033482.    69939.    50
 3 ST166Q03HA  5913918.    66479.    50
 4 METASPAM    5671665.    68871.    50
 5 IC152Q08HA  3850699.   304274.    49
 6 PISADIFF    3046729.   362250.    50
 7 IC010Q06NA  2691482.   355147.    50
 8 ST013Q01TA   433681.   142604.    50
 9 ESCS         329367.    16981.    50
10 HOMEPOS      258437.    11440.    50
# … with 491 more rows
```
…
